R for Bio Data Science - Lab 5: Data Wrangling II
…
Take some time to do some EDA, understand what is in the data, do some summaries, make some plots. Basically, you have to know the data you are working with

EDA: Exploraty Data Analysis II - The Sequence Data

Part I

The first thing we will take a look at here, is how the Subject HLA-alleles are distributed. But wait, discuss in your group, what are HLA-alleles?

Now, create subset the peptide_meta_data to the variables Subject, HLA- and save it into allele_data, like so:

# A tibble: 127 × 7
   Subject `HLA-A...9` `HLA-A...10` `HLA-B...11` `HLA-B...12` `HLA-C...13`
     <dbl> <chr>       <chr>        <chr>        <chr>        <chr>       
 1   20655 A*11:01     A*68:01      B*35:01      B*35:03      C*03:03     
 2   14758 A*02:01     A*33:03      B*53:01      B*58:01      C*03:02     
 3     361 A*01:01:01  A*02:01:01   B*15:01:01   B*51:01:01   C*01:02:01  
 4    1528 A*02:01:01  A*02:01:01   B*13:02:01   B*18:01:01   C*06:02:01  
 5     273 A*02:01:01  A*03:01:01   B*07:02:01   B*18:01:01   C*07:01:01  
 6    1245 A*03:01:01  A*32:01:01   B*07:02:01   B*07:02:01   C*07:02:01  
 7    2267 A*02:01:01  A*32:01:01   B*15:01:01   B*51:01:01   C*02:02:02  
 8     242 A*01:01:01  A*02:01:01   B*37:01:01   B*44:03:01   C*06:02:01  
 9   19943 A*02:01     A*02:01      B*35:03      B*44:02      C*04:01     
10    3819 A*02:01     A*03:01      B*07:02      B*44:27      C*07:02     
# ℹ 117 more rows
# ℹ 1 more variable: `HLA-C...14` <chr>
…
Then convert the data to long format and save it a new variable allele_data_long like so:

# A tibble: 762 × 3
   Subject Gene       Allele 
     <dbl> <chr>      <chr>  
 1   20655 HLA-A...9  A*11:01
 2   20655 HLA-A...10 A*68:01
 3   20655 HLA-B...11 B*35:01
 4   20655 HLA-B...12 B*35:03
 5   20655 HLA-C...13 C*03:03
 6   20655 HLA-C...14 C*04:01
 7   14758 HLA-A...9  A*02:01
 8   14758 HLA-A...10 A*33:03
 9   14758 HLA-B...11 B*53:01
10   14758 HLA-B...12 B*58:01
# ℹ 752 more rows

Q12: How many unique alleles are there?

Using the View()-function again, look at the unique alleles - Notice something? Some alleles are e.g. A*11:01, whereas others are B*51:01:02. You can find information on why, by visiting Nomenclature for Factors of the HLA System.

Long story short, we only want to include Field 1 (allele group) and Field 2 (Specific HLA protein). You have prepared the stringr-package for today. See if you can find a way to reduce e.g. B*51:01:02 to B*51:01 and then create a new variable Allele_F_1_2 accordingly, while also removing the ...x (where x is a number) subscripts from the Gene-variable (It is an artifact from having the data in a wide format, where you cannot have two variables with the same name) and also, remove any NAs

Click here for hint

There are several ways this can be achieved, the easiest being to consider if perhaps a part of the string based on indices could be of interest. This term “a part of a string” is called a substring, perhaps the stringr-package contains a function work with substring? In the console, type stringr:: and hit tab. This will display the functions available in the stringr-package. Scroll down and find the functionst starting with str_ and look for on, which might be relevant and remember you can use ?function_name to get more information on how a given function works.

# A tibble: 684 × 4
   Subject Gene  Allele  Allele_F_1_2
     <dbl> <chr> <chr>   <chr>       
 1   20655 HLA-A A*11:01 A*11:01     
 2   20655 HLA-A A*68:01 A*68:01     
 3   20655 HLA-B B*35:01 B*35:01     
 4   20655 HLA-B B*35:03 B*35:03     
 5   20655 HLA-C C*03:03 C*03:03     
 6   20655 HLA-C C*04:01 C*04:01     
 7   14758 HLA-A A*02:01 A*02:01     
 8   14758 HLA-A A*33:03 A*33:03     
 9   14758 HLA-B B*53:01 B*53:01     
10   14758 HLA-B B*58:01 B*58:01     
# ℹ 674 more rows
…
Click here for hint

What does fct_reorder()´do? Also, consider when working per gene, you will probably have to include that grouping in your pipeline - Remember we don't loop, we func! Also, you can use a combination of thearrange()- andslice()`-functions to get top or bottom something observations.

Part II

This last part is rather tricky and therefore optional. It will take some time and trial-and-error to complete, so if you’re up for it, feel free to take on the challenge to test and expand your skills!

Now, that we have worked with the HLA-alleles, we will take a look into how the peptides bind to the HLA-alleles.

First, create this data set from your peptide_meta_data data set and save in a new variable sequence_data (drop ANY rows contaning NAs ):

# A tibble: 148,489 × 8
   `TCR BioIdentity`         `Amino Acids` `HLA-A...9` `HLA-A...10` `HLA-B...11`
   <chr>                     <chr>         <chr>       <chr>        <chr>       
 1 CASSAQGTGDRGYTF+TCRBV27-… ADAGFIKQY,AE… A*11:01     A*68:01      B*35:01     
 2 CASSLVATGNTGELFF+TCRBV07… ADAGFIKQY,AE… A*02:01     A*33:03      B*53:01     
 3 CASSKGTVSGLSG+TCRBV21-01… ADAGFIKQY,AE… A*11:01     A*68:01      B*35:01     
 4 CALKVGADTQYF+TCRBV30-01+… ADAGFIKQY,AE… A*01:01:01  A*02:01:01   B*15:01:01  
 5 CASSLWASGRGGTGELFF+TCRBV… ADAGFIKQY,AE… A*11:01     A*68:01      B*35:01     
 6 CASSLLGWEQLDEQFF+TCRBV27… ADAGFIKQY,AE… A*02:01:01  A*02:01:01   B*13:02:01  
 7 CASSSGTGVYGYTF+TCRBV12-X… ADAGFIKQY,AE… A*11:01     A*68:01      B*35:01     
 8 CASSPLEWEGVTEAFF+TCRBV06… ADAGFIKQY,AE… A*02:01:01  A*03:01:01   B*07:02:01  
 9 CASSFWSSGRGGTDTQYF+TCRBV… ADAGFIKQY,AE… A*11:01     A*68:01      B*35:01     
10 CASSAGQGASDEQFF+TCRBV07-… ADAGFIKQY,AE… A*03:01:01  A*32:01:01   B*07:02:01  
# ℹ 148,479 more rows
# ℹ 3 more variables: `HLA-B...12` <chr>, `HLA-C...13` <chr>,
#   `HLA-C...14` <chr>

Q16: How many rows contained NAs?

Q17: Is this data tidy? Explain why you answered yes or no

Now, google tidyr separate and figure out how this works. Then fix the TCR BioIdentity-variable like so:

# A tibble: 148,489 × 10
   CDR3b       v_gene j_gene `Amino Acids` `HLA-A...9` `HLA-A...10` `HLA-B...11`
   <chr>       <chr>  <chr>  <chr>         <chr>       <chr>        <chr>       
 1 CASSAQGTGD… TCRBV… TCRBJ… ADAGFIKQY,AE… A*11:01     A*68:01      B*35:01     
 2 CASSLVATGN… TCRBV… TCRBJ… ADAGFIKQY,AE… A*02:01     A*33:03      B*53:01     
 3 CASSKGTVSG… TCRBV… TCRBJ… ADAGFIKQY,AE… A*11:01     A*68:01      B*35:01     
 4 CALKVGADTQ… TCRBV… TCRBJ… ADAGFIKQY,AE… A*01:01:01  A*02:01:01   B*15:01:01  
 5 CASSLWASGR… TCRBV… TCRBJ… ADAGFIKQY,AE… A*11:01     A*68:01      B*35:01     
 6 CASSLLGWEQ… TCRBV… TCRBJ… ADAGFIKQY,AE… A*02:01:01  A*02:01:01   B*13:02:01  
 7 CASSSGTGVY… TCRBV… TCRBJ… ADAGFIKQY,AE… A*11:01     A*68:01      B*35:01     
 8 CASSPLEWEG… TCRBV… TCRBJ… ADAGFIKQY,AE… A*02:01:01  A*03:01:01   B*07:02:01  
 9 CASSFWSSGR… TCRBV… TCRBJ… ADAGFIKQY,AE… A*11:01     A*68:01      B*35:01     
10 CASSAGQGAS… TCRBV… TCRBJ… ADAGFIKQY,AE… A*03:01:01  A*32:01:01   B*07:02:01  
# ℹ 148,479 more rows
# ℹ 3 more variables: `HLA-B...12` <chr>, `HLA-C...13` <chr>,
#   `HLA-C...14` <chr>
…
Important: Now you can choose one of two paths in the exercises and either is fine! Either you proceed to A (a bit more difficult) or scroll down to B (a bit less difficult)!

A

Now, Using str_c() and seq(), see if you can re-create this:

[1] "peptide_1" "peptide_2" "peptide_3" "peptide_4" "peptide_5"

But changing the last peptide_n, such that n is the maximum number of peptides from Q19, 5 won’t do. Then use that to fix the Amino Acids-variable, like so:

Warning: Expected 13 pieces. Missing pieces filled with `NA` in 145021 rows [1, 2, 3, 4,
5, 6, 7, 8, 9, 10, 11, 12, 13, 14, 15, 16, 17, 18, 19, 20, ...].

# A tibble: 148,489 × 23
   CDR3b         v_gene j_gene peptide_1 peptide_2 peptide_3 peptide_4 peptide_5
   <chr>         <chr>  <chr>  <chr>     <chr>     <chr>     <chr>     <chr>    
 1 CASSAQGTGDRG… TCRBV… TCRBJ… ADAGFIKQY AELEGIQY  LADAGFIK… TLADAGFIK <NA>     
 2 CASSLVATGNTG… TCRBV… TCRBJ… ADAGFIKQY AELEGIQY  LADAGFIK… TLADAGFIK <NA>     
 3 CASSKGTVSGLSG TCRBV… TCRBJ… ADAGFIKQY AELEGIQY  LADAGFIK… TLADAGFIK <NA>     
 4 CALKVGADTQYF  TCRBV… TCRBJ… ADAGFIKQY AELEGIQY  LADAGFIK… TLADAGFIK <NA>     
 5 CASSLWASGRGG… TCRBV… TCRBJ… ADAGFIKQY AELEGIQY  LADAGFIK… TLADAGFIK <NA>     
 6 CASSLLGWEQLD… TCRBV… TCRBJ… ADAGFIKQY AELEGIQY  LADAGFIK… TLADAGFIK <NA>     
 7 CASSSGTGVYGY… TCRBV… TCRBJ… ADAGFIKQY AELEGIQY  LADAGFIK… TLADAGFIK <NA>     
 8 CASSPLEWEGVT… TCRBV… TCRBJ… ADAGFIKQY AELEGIQY  LADAGFIK… TLADAGFIK <NA>     
 9 CASSFWSSGRGG… TCRBV… TCRBJ… ADAGFIKQY AELEGIQY  LADAGFIK… TLADAGFIK <NA>     
10 CASSAGQGASDE… TCRBV… TCRBJ… ADAGFIKQY AELEGIQY  LADAGFIK… TLADAGFIK <NA>     
# ℹ 148,479 more rows
# ℹ 15 more variables: peptide_6 <chr>, peptide_7 <chr>, peptide_8 <chr>,
#   peptide_9 <chr>, peptide_10 <chr>, peptide_11 <chr>, peptide_12 <chr>,
#   peptide_13 <chr>, `HLA-A...9` <chr>, `HLA-A...10` <chr>,
#   `HLA-B...11` <chr>, `HLA-B...12` <chr>, `HLA-C...13` <chr>,
#   `HLA-C...14` <chr>, n_peptides <dbl>

and convert the data and save it into sequence_data_long, like so:

# A tibble: 1,930,357 × 12
   CDR3b        v_gene j_gene `HLA-A...9` `HLA-A...10` `HLA-B...11` `HLA-B...12`
   <chr>        <chr>  <chr>  <chr>       <chr>        <chr>        <chr>       
 1 CASSAQGTGDR… TCRBV… TCRBJ… A*11:01     A*68:01      B*35:01      B*35:03     
 2 CASSAQGTGDR… TCRBV… TCRBJ… A*11:01     A*68:01      B*35:01      B*35:03     
 3 CASSAQGTGDR… TCRBV… TCRBJ… A*11:01     A*68:01      B*35:01      B*35:03     
 4 CASSAQGTGDR… TCRBV… TCRBJ… A*11:01     A*68:01      B*35:01      B*35:03     
 5 CASSAQGTGDR… TCRBV… TCRBJ… A*11:01     A*68:01      B*35:01      B*35:03     
 6 CASSAQGTGDR… TCRBV… TCRBJ… A*11:01     A*68:01      B*35:01      B*35:03     
 7 CASSAQGTGDR… TCRBV… TCRBJ… A*11:01     A*68:01      B*35:01      B*35:03     
 8 CASSAQGTGDR… TCRBV… TCRBJ… A*11:01     A*68:01      B*35:01      B*35:03     
 9 CASSAQGTGDR… TCRBV… TCRBJ… A*11:01     A*68:01      B*35:01      B*35:03     
10 CASSAQGTGDR… TCRBV… TCRBJ… A*11:01     A*68:01      B*35:01      B*35:03     
# ℹ 1,930,347 more rows
# ℹ 5 more variables: `HLA-C...13` <chr>, `HLA-C...14` <chr>, n_peptides <dbl>,
#   peptide_n <chr>, peptide <chr>

Q20: How many observations are now in sequence_data_long?

Remove NAs, fix the HLA-alleles, remove redundant columns and observations, like so:

# A tibble: 3,242,120 × 5
   CDR3b           v_gene     j_gene     peptide   allele 
   <chr>           <chr>      <chr>      <chr>     <chr>  
 1 CASSAQGTGDRGYTF TCRBV27-01 TCRBJ01-02 ADAGFIKQY A*11:01
 2 CASSAQGTGDRGYTF TCRBV27-01 TCRBJ01-02 ADAGFIKQY A*68:01
 3 CASSAQGTGDRGYTF TCRBV27-01 TCRBJ01-02 ADAGFIKQY B*35:01
 4 CASSAQGTGDRGYTF TCRBV27-01 TCRBJ01-02 ADAGFIKQY B*35:03
 5 CASSAQGTGDRGYTF TCRBV27-01 TCRBJ01-02 ADAGFIKQY C*03:03
 6 CASSAQGTGDRGYTF TCRBV27-01 TCRBJ01-02 ADAGFIKQY C*04:01
 7 CASSAQGTGDRGYTF TCRBV27-01 TCRBJ01-02 AELEGIQY  A*11:01
 8 CASSAQGTGDRGYTF TCRBV27-01 TCRBJ01-02 AELEGIQY  A*68:01
 9 CASSAQGTGDRGYTF TCRBV27-01 TCRBJ01-02 AELEGIQY  B*35:01
10 CASSAQGTGDRGYTF TCRBV27-01 TCRBJ01-02 AELEGIQY  B*35:03
# ℹ 3,242,110 more rows

Q21: How many observations now? Is this data tidy now?

B

Now, let us proceed with the observations, where we just have a single peptide annotated, so subset your data accordingly, using the n_peptides variable you created, like so:

# A tibble: 52,857 × 11
   CDR3b       v_gene j_gene `Amino Acids` `HLA-A...9` `HLA-A...10` `HLA-B...11`
   <chr>       <chr>  <chr>  <chr>         <chr>       <chr>        <chr>       
 1 CASSLSAGFG… TCRBV… TCRBJ… SEVGPEHSLAEY  A*01:01:01  A*02:01:01   B*40:01:02  
 2 CASSLTGQTD… TCRBV… TCRBJ… SEVGPEHSLAEY  A*02:01     A*26:01      B*44:02     
 3 CASSLDVWET… TCRBV… TCRBJ… SEVGPEHSLAEY  A*01:01:01  A*24:02:01   B*08:01:01  
 4 CASSASGTEE… TCRBV… TCRBJ… SEVGPEHSLAEY  A*02:01     A*26:01      B*44:02     
 5 CASSEGTANT… TCRBV… TCRBJ… SEVGPEHSLAEY  A*11:01:01  A*24:02:01   B*15:01:01  
 6 CASSLSGYQE… TCRBV… TCRBJ… SEVGPEHSLAEY  A*02:01     A*26:01      B*44:02     
 7 CASTPGPSYE… TCRBV… TCRBJ… SEVGPEHSLAEY  A*02:01     A*03:01      B*40:01     
 8 CASSLSGATD… TCRBV… TCRBJ… SEVGPEHSLAEY  A*02:01     A*26:01      B*44:02     
 9 CASWKRGGRE… TCRBV… TCRBJ… SEVGPEHSLAEY  A*02:01     A*03:01      B*40:01     
10 CASSSPGTGV… TCRBV… TCRBJ… SEVGPEHSLAEY  A*01:01     A*02:01      B*35:02     
# ℹ 52,847 more rows
# ℹ 4 more variables: `HLA-B...12` <chr>, `HLA-C...13` <chr>,
#   `HLA-C...14` <chr>, n_peptides <dbl>

Then collect all the alleles in one variable, like so:

# A tibble: 297,910 × 5
   CDR3b          v_gene     j_gene     `Amino Acids` allele    
   <chr>          <chr>      <chr>      <chr>         <chr>     
 1 CASSLSAGFGYTF  TCRBV27-01 TCRBJ01-02 SEVGPEHSLAEY  A*01:01:01
 2 CASSLSAGFGYTF  TCRBV27-01 TCRBJ01-02 SEVGPEHSLAEY  A*02:01:01
 3 CASSLSAGFGYTF  TCRBV27-01 TCRBJ01-02 SEVGPEHSLAEY  B*40:01:02
 4 CASSLSAGFGYTF  TCRBV27-01 TCRBJ01-02 SEVGPEHSLAEY  B*52:01:02
 5 CASSLSAGFGYTF  TCRBV27-01 TCRBJ01-02 SEVGPEHSLAEY  C*03:04:01
 6 CASSLSAGFGYTF  TCRBV27-01 TCRBJ01-02 SEVGPEHSLAEY  C*16:01:01
 7 CASSLTGQTDTQYF TCRBV07-09 TCRBJ02-03 SEVGPEHSLAEY  A*02:01   
 8 CASSLTGQTDTQYF TCRBV07-09 TCRBJ02-03 SEVGPEHSLAEY  A*26:01   
 9 CASSLTGQTDTQYF TCRBV07-09 TCRBJ02-03 SEVGPEHSLAEY  B*44:02   
10 CASSLTGQTDTQYF TCRBV07-09 TCRBJ02-03 SEVGPEHSLAEY  B*52:01   
# ℹ 297,900 more rows
…
