R for Bio Data Science - Lab 6: Applying Functional Programming with Purrr to Models
…
Models, models everywhere…

In principle, you could overflow your environment with individual model objects, but that would require a lot of code-lines and a lot of hard-coding. But let us instead see if we can come up with something just a tad more clever.

Preparing the Data

First:

Q12: Discuss in your group, if the gravier_clean_aug is a “wide” or a “long” dataset?

Once you have agreed upon and understood why, this is a wide data set, proceed and:

T9: Create this long version of your gravier_clean_aug data and save it in gravier_clean_aug_long

# A tibble: 488,040 × 3
   early_metastasis gene   log2_expr_level
              <dbl> <chr>            <dbl>
 1                0 g2E09         -0.00144
 2                0 g7F07         -0.00144
 3                0 g1A01         -0.0831 
 4                0 g3C09         -0.0475 
 5                0 g3H08          0.0158 
 6                0 g1A08         -0.0336 
 7                0 g1B01         -0.136  
 8                0 g1int1         0.0180 
 9                0 g1E11          0.0257 
10                0 g8G02          0.00720
# ℹ 488,030 more rows

Click here for hint

Recall which function took a dataset from “wide” to “long” format and also the three parameters of interest for that function is cols, names_to and values_to. If you look at my example, you will see that the columns we have pivoted have types <chr> and <dbl>, these will map to the names_to and values_to parameters respectively. The cols can be used with the so-called “helper-functions”, that we have previously talked about. If you look at the gene-columns in the data, all the genes starts with a “g”, so we can use the helper functions starts_with() and then give the argument “g” to the match parameter

The reason we want the “long” version of the data set is, that now we have ALL the genes defined in ONE gene column. This means that we can use group_by() to work per gene without looping (Recall: Don’t loop, only func!).

Now:

T10: Create a dplyr pipeline, use the group_by() function to group your gravier_clean_aug_long dataset by gene and then add the nest() and ungroup() functions to your pipeline

# A tibble: 2,905 × 2
   gene   data              
   <chr>  <list>            
 1 g2E09  <tibble [168 × 2]>
 2 g7F07  <tibble [168 × 2]>
 3 g1A01  <tibble [168 × 2]>
 4 g3C09  <tibble [168 × 2]>
 5 g3H08  <tibble [168 × 2]>
 6 g1A08  <tibble [168 × 2]>
 7 g1B01  <tibble [168 × 2]>
 8 g1int1 <tibble [168 × 2]>
 9 g1E11  <tibble [168 × 2]>
10 g8G02  <tibble [168 × 2]>
# ℹ 2,895 more rows
…
Q14: Moreover, discuss in your group, what does <tibble [168 × 2]> mean?

Now, if you’re experiencing, that the server seems slow, consider if you want to proceed now with ALL the genes or just a subset. If you just want a subset, then use sample_n() to randomly select e.g. 100 genes for further analysis. Remember you may want to use the set.seed() function to create a reproducible work flow even when sampling.

Fitting Models

Now, recall our research question:

What genes are significantly up-/down-regulated between the patients with- and without early metastasis?

To investigate this, we want to fit a linear model to each gene, i.e. as you did initially for your favourite gene, we want to do in a clever way per gene for ALL genes.

T11: Use the group_by() function to let R know, that we want to work per gene

# A tibble: 2,905 × 2
# Groups:   gene [2,905]
   gene   data              
   <chr>  <list>            
 1 g2E09  <tibble [168 × 2]>
 2 g7F07  <tibble [168 × 2]>
 3 g1A01  <tibble [168 × 2]>
 4 g3C09  <tibble [168 × 2]>
 5 g3H08  <tibble [168 × 2]>
 6 g1A08  <tibble [168 × 2]>
 7 g1B01  <tibble [168 × 2]>
 8 g1int1 <tibble [168 × 2]>
 9 g1E11  <tibble [168 × 2]>
10 g8G02  <tibble [168 × 2]>
# ℹ 2,895 more rows
…
  # The result of pluck, is a model object,
  #   upon which we can call the tidy function
  tidy(conf.int = TRUE,
       conf.level = 0.95)

Now, we want to apply this tidy() function per model_object:

T13: Scroll a bit back to where we created the model_object and see if you can translate that into mapping the tidy() function to the model_object variable, thereby creating a new variable model_object_tidy - This is tricky, so do make sure to discuss in your group how this can be done!

Click here for hint

Remember the parameters to the tidy() functions, which gives us the confidence intervals and defines corresponding level. Also, everything you need is in the previous layout of the map() function. Note, that the calls to the pull() and pluck() functions above, pertains to extracting from a tibble, which we do not want, on the contrary, we want all objects to be contained in our gravier_clean_aug_long_nested data

# A tibble: 2,905 × 4
# Groups:   gene [2,905]
   gene   data               model_object model_object_tidy
   <chr>  <list>             <list>       <list>           
 1 g2E09  <tibble [168 × 2]> <lm>         <tibble [2 × 7]> 
 2 g7F07  <tibble [168 × 2]> <lm>         <tibble [2 × 7]> 
 3 g1A01  <tibble [168 × 2]> <lm>         <tibble [2 × 7]> 
 4 g3C09  <tibble [168 × 2]> <lm>         <tibble [2 × 7]> 
 5 g3H08  <tibble [168 × 2]> <lm>         <tibble [2 × 7]> 
 6 g1A08  <tibble [168 × 2]> <lm>         <tibble [2 × 7]> 
 7 g1B01  <tibble [168 × 2]> <lm>         <tibble [2 × 7]> 
 8 g1int1 <tibble [168 × 2]> <lm>         <tibble [2 × 7]> 
 9 g1E11  <tibble [168 × 2]> <lm>         <tibble [2 × 7]> 
10 g8G02  <tibble [168 × 2]> <lm>         <tibble [2 × 7]> 
# ℹ 2,895 more rows
Note, once again, this is conceptually a super-tricky data structure, not only do we have a per gene nested tibble, but now we also have a per gene nested model object and now also a nested tibble of tidyed objects - So please again do make sure to discuss in your group, what is going on here, e.g. try running this and discuss what you see:

gravier_clean_aug_long_nested |>
  filter(gene == "g2E09") |> # Replace "g2E09" with whatever was YOUR favourite gene!
  pull(model_object_tidy)

Wrangling

We’re almost there - just a bit of wrangling to go!

Just as you saw that we could nest() on a variable (recall we did that for the gene variable), you can do the opposite and lo and behold, that is the unnest() function. Before we continue:

T14: Create a dplyr pipeline and save the result in a new variable called gravier_estimates: Use the unnest() function to unpack the model_object_tidy

# A tibble: 5,810 × 10
# Groups:   gene [2,905]
   gene  data     model_object term         estimate std.error statistic p.value
   <chr> <list>   <list>       <chr>           <dbl>     <dbl>     <dbl>   <dbl>
 1 g2E09 <tibble> <lm>         (Intercept)  -0.0162     0.0117    -1.38  1.69e-1
 2 g2E09 <tibble> <lm>         early_metas… -0.0343     0.0201    -1.71  8.99e-2
 3 g7F07 <tibble> <lm>         (Intercept)   0.0604     0.0139     4.35  2.36e-5
 4 g7F07 <tibble> <lm>         early_metas… -0.0185     0.0238    -0.778 4.38e-1
 5 g1A01 <tibble> <lm>         (Intercept)  -0.0290     0.0123    -2.35  1.99e-2
 6 g1A01 <tibble> <lm>         early_metas… -0.0367     0.0211    -1.73  8.47e-2
 7 g3C09 <tibble> <lm>         (Intercept)   0.0518     0.0145     3.58  4.55e-4
 8 g3C09 <tibble> <lm>         early_metas… -0.0148     0.0249    -0.595 5.53e-1
 9 g3H08 <tibble> <lm>         (Intercept)   0.0142     0.0128     1.11  2.69e-1
10 g3H08 <tibble> <lm>         early_metas…  0.00247    0.0220     0.112 9.11e-1
# ℹ 5,800 more rows
# ℹ 2 more variables: conf.low <dbl>, conf.high <dbl>

T15: The again, create a dplyr pipeline and save the result in a the same gravier_estimates variable: Subset the rows to only get the slope term and then choose variables as displayed below, finally end with un-grouping your data, as we no longer need the groups

# A tibble: 2,905 × 5
   gene   p.value estimate conf.low conf.high
   <chr>    <dbl>    <dbl>    <dbl>     <dbl>
 1 g2E09   0.0899 -0.0343   -0.0739   0.00539
 2 g7F07   0.438  -0.0185   -0.0655   0.0285 
 3 g1A01   0.0847 -0.0367   -0.0784   0.00508
 4 g3C09   0.553  -0.0148   -0.0639   0.0343 
 5 g3H08   0.911   0.00247  -0.0410   0.0459 
 6 g1A08   0.859  -0.00363  -0.0438   0.0366 
 7 g1B01   0.279  -0.0218   -0.0615   0.0178 
 8 g1int1  0.666  -0.0113   -0.0627   0.0402 
 9 g1E11   0.106  -0.0329   -0.0728   0.00703
10 g8G02   0.633  -0.0108   -0.0555   0.0338 
# ℹ 2,895 more rows

T16: To your gravier_estimates dataset, add a variable q.value, which is the result of calling the p.adjust() function on your p.value variable and also add an indicator variable denoting if a given gene is significant or not

# A tibble: 2,905 × 7
   gene   p.value estimate conf.low conf.high q.value is_significant
   <chr>    <dbl>    <dbl>    <dbl>     <dbl>   <dbl> <chr>         
 1 g2E09   0.0899 -0.0343   -0.0739   0.00539       1 no            
 2 g7F07   0.438  -0.0185   -0.0655   0.0285        1 no            
 3 g1A01   0.0847 -0.0367   -0.0784   0.00508       1 no            
 4 g3C09   0.553  -0.0148   -0.0639   0.0343        1 no            
 5 g3H08   0.911   0.00247  -0.0410   0.0459        1 no            
 6 g1A08   0.859  -0.00363  -0.0438   0.0366        1 no            
 7 g1B01   0.279  -0.0218   -0.0615   0.0178        1 no            
 8 g1int1  0.666  -0.0113   -0.0627   0.0402        1 no            
 9 g1E11   0.106  -0.0329   -0.0728   0.00703       1 no            
10 g8G02   0.633  -0.0108   -0.0555   0.0338        1 no            
# ℹ 2,895 more rows
…
