Lab 2: Data Visualisation I – R for Bio Data Science
…
Create data

Before we can visualise the data, we need to wrangle it a bit. Nevermind the details here, we will get to that later. Just create a new chunk, copy/paste the below code and run it:

set.seed(676571)
cancer_data=mutate(as_tibble(pluck(gravier,"x")),y=pluck(gravier,"y"),pt_id=1:length(pluck(gravier, "y")),age=round(rnorm(length(pluck(gravier,"y")),mean=55,sd=10),1))
cancer_data=rename(cancer_data,event_label=y)
cancer_data$age_group=cut(cancer_data$age,breaks=seq(10,100,by=10))
cancer_data=relocate(cancer_data,c(pt_id,age,age_group,pt_id,event_label))

Now we have the data set as a tibble, which is an augmented data frame (we will also get to that later):

cancer_data

# A tibble: 168 × 2,909
   pt_id   age age_group event_label    g2E09    g7F07    g1A01   g3C09    g3H08
   <int> <dbl> <fct>     <fct>          <dbl>    <dbl>    <dbl>   <dbl>    <dbl>
 1     1  34.2 (30,40]   good        -0.00144 -0.00144 -0.0831  -0.0475  1.58e-2
 2     2  47   (40,50]   good        -0.0604   0.0129  -0.00144  0.0104  3.16e-2
 3     3  60.3 (60,70]   good         0.0398   0.0524  -0.0786   0.0635 -3.95e-2
 4     4  57.8 (50,60]   good         0.0101   0.0314  -0.0218   0.0215  8.68e-2
 5     5  54.9 (50,60]   good         0.0496   0.0201   0.0370   0.0311  2.07e-2
 6     6  58.8 (50,60]   good        -0.0664   0.0468   0.00720 -0.370   2.88e-3
 7     7  52.9 (50,60]   good        -0.00289 -0.0816  -0.0291  -0.0249 -1.74e-2
 8     8  74.5 (70,80]   good        -0.198   -0.0499  -0.0634  -0.0298  3.00e-2
 9     9  47.6 (40,50]   good         0.00288  0.0201   0.0272   0.0174 -7.89e-5
10    10  55.8 (50,60]   good        -0.0574  -0.0574  -0.0831  -0.0897 -1.01e-1
# ℹ 158 more rows
# ℹ 2,900 more variables: g1A08 <dbl>, g1B01 <dbl>, g1int1 <dbl>, g1E11 <dbl>,
#   g8G02 <dbl>, g1H04 <dbl>, g1C01 <dbl>, g1F11 <dbl>, g3F05 <dbl>,
#   g3B09 <dbl>, g1int2 <dbl>, g2C01 <dbl>, g1A05 <dbl>, g1E01 <dbl>,
#   g1B05 <dbl>, g3C05 <dbl>, g3A07 <dbl>, g1F01 <dbl>, g2D01 <dbl>,
#   g1int3 <dbl>, g1int4 <dbl>, g1D05 <dbl>, g1E05 <dbl>, g1G05 <dbl>,
#   g1C05 <dbl>, g1G11 <dbl>, g2D08 <dbl>, g2E06 <dbl>, g3H09 <dbl>, …
…
