R for Bio Data Science - Lab 3: Data Visualisation II
…
Change the chunk settings as before

Data Visualisation II

Read the data

SPE_ENV <- read_tsv(file = "data/SPE_ENV.tsv")
SPE_ENV

# A tibble: 4,212 × 15
   Taxa   Samples OTU_Count    pH  Temp    TS    VS   VFA  CODt  CODs perCODsbyt
   <chr>  <chr>       <dbl> <dbl> <dbl> <dbl> <dbl> <dbl> <dbl> <dbl>      <dbl>
 1 Acido… T_2_1           0  7.82  25.1  14.5 71.3   71     874   311         36
 2 Acido… T_2_10          0  9.08  24.2  37.8 31.5    2     102     9          9
 3 Acido… T_2_12          0  8.84  25.1  71.1  5.94   1      35     4         10
 4 Acido… T_2_2           0  6.49  29.6  13.9 64.9    3.7   389   180         46
 5 Acido… T_2_3           0  6.46  27.9  29.4 26.8   27.5   161    35         22
 6 Acido… T_2_6           0  7.69  28.7  65.5  7.03   1.5    57     3          6
 7 Acido… T_2_7           0  7.48  29.8  36.0 34.1    1.1   107     9          8
 8 Acido… T_2_9           0  7.6   25    46.9 19.6    1.1    62     8         13
 9 Acido… T_3_2           0  7.55  28.8  12.6 51.8   30.9   384    57         15
10 Acido… T_3_3           0  7.68  28.9  14.6 48.1   24.2   372    57         15
# ℹ 4,202 more rows
# ℹ 4 more variables: NH4 <dbl>, Prot <dbl>, Carbo <dbl>, site <chr>
…
