Primer on Logistic Regression in R – R for Bio Data Science
…
Primer on Logistic Regression in R

Logistic Regression

gravier_wide <- gravier |>
  bind_cols() |>
  as_tibble()
gravier_wide

# A tibble: 168 × 2,906
      g2E09    g7F07    g1A01   g3C09      g3H08    g1A08    g1B01   g1int1
      <dbl>    <dbl>    <dbl>   <dbl>      <dbl>    <dbl>    <dbl>    <dbl>
 1 -0.00144 -0.00144 -0.0831  -0.0475  0.0158    -0.0336  -0.136    0.0180 
 2 -0.0604   0.0129  -0.00144  0.0104  0.0316     0.108    0.0158   0.0800 
 3  0.0398   0.0524  -0.0786   0.0635 -0.0395     0.0342   0.00288  0.0594 
 4  0.0101   0.0314  -0.0218   0.0215  0.0868     0.0272  -0.0160   0.0759 
 5  0.0496   0.0201   0.0370   0.0311  0.0207    -0.0174   0.111   -0.0469 
 6 -0.0664   0.0468   0.00720 -0.370   0.00288    0.0243   0.0909   0.0482 
 7 -0.00289 -0.0816  -0.0291  -0.0249 -0.0174     0.0172  -0.170   -0.00578
 8 -0.198   -0.0499  -0.0634  -0.0298  0.0300     0.00144 -0.0529  -0.0401 
 9  0.00288  0.0201   0.0272   0.0174 -0.0000789 -0.0634   0.0370   0.0314 
10 -0.0574  -0.0574  -0.0831  -0.0897 -0.101     -0.144   -0.167    0.0172 
# ℹ 158 more rows
# ℹ 2,898 more variables: g1E11 <dbl>, g8G02 <dbl>, g1H04 <dbl>, g1C01 <dbl>,
#   g1F11 <dbl>, g3F05 <dbl>, g3B09 <dbl>, g1int2 <dbl>, g2C01 <dbl>,
#   g1A05 <dbl>, g1E01 <dbl>, g1B05 <dbl>, g3C05 <dbl>, g3A07 <dbl>,
#   g1F01 <dbl>, g2D01 <dbl>, g1int3 <dbl>, g1int4 <dbl>, g1D05 <dbl>,
#   g1E05 <dbl>, g1G05 <dbl>, g1C05 <dbl>, g1G11 <dbl>, g2D08 <dbl>,
#   g2E06 <dbl>, g3H09 <dbl>, g2F09 <dbl>, g3G06 <dbl>, g2G08 <dbl>, …
…
